%YAML 1.1
%TAG !u! tag:unity3d.com,2011:
--- !u!74 &7400000
AnimationClip:
  m_ObjectHideFlags: 0
  m_CorrespondingSourceObject: {fileID: 0}
  m_PrefabInstance: {fileID: 0}
  m_PrefabAsset: {fileID: 0}
  m_Name: rifleman-surprise moment
  serializedVersion: 6
  m_Legacy: 0
  m_Compressed: 0
  m_UseHighQualityCurve: 1
  m_RotationCurves: []
  m_CompressedRotationCurves: []
  m_EulerCurves: []
  m_PositionCurves: []
  m_ScaleCurves: []
  m_FloatCurves: []
  m_PPtrCurves:
  - curve:
    - time: 0
      value: {fileID: 21300000, guid: e57566ade57bf5340a8dd1a0a732f15c, type: 3}
    - time: 0.055555556
      value: {fileID: 21300000, guid: 2f7ea9dc033cc8c42b9546f0dd0d2ec4, type: 3}
    - time: 0.11111111
      value: {fileID: 21300000, guid: 77f37fcc13a0a84408b38493fa0d0ce0, type: 3}
    - time: 0.16666667
      value: {fileID: 21300000, guid: 1460564890fed2d44918bb1d749b292f, type: 3}
    - time: 0.22222222
      value: {fileID: 21300000, guid: ac10cb7631f54f9499b8b88065cf49be, type: 3}
    - time: 0.2777778
      value: {fileID: 21300000, guid: 7076a4799c4474c49817e4c1c48647ab, type: 3}
    - time: 0.33333334
      value: {fileID: 21300000, guid: ab88242c9e4e4164597d6dea3562a0f2, type: 3}
    - time: 0.3888889
      value: {fileID: 21300000, guid: b2b17e3d39e507b4cb9c6dd63dce4d3c, type: 3}
    - time: 0.44444445
      value: {fileID: 21300000, guid: 62bc8840a6c6e0a48be2e1861fce0186, type: 3}
    - time: 0.5
      value: {fileID: 21300000, guid: 9e2fbf83c520d2a41874219caf294fbb, type: 3}
    - time: 0.5555556
      value: {fileID: 21300000, guid: 291911f85689db34481eca36b0a54a83, type: 3}
    - time: 0.6111111
      value: {fileID: 21300000, guid: 9aeb12ba21d920f4596ca4cca0593754, type: 3}
    - time: 0.6666667
      value: {fileID: 21300000, guid: 252c9a69b37504c49b8f766c39e319f0, type: 3}
    - time: 0.7222222
      value: {fileID: 21300000, guid: c68b37866ef71bf43bd64c65f3806488, type: 3}
    - time: 0.7777778
      value: {fileID: 21300000, guid: 2680a2853a009e94b9b3f50b961076eb, type: 3}
    attribute: m_Sprite
    path: 
    classID: 212
    script: {fileID: 0}
  m_SampleRate: 18
  m_WrapMode: 0
  m_Bounds:
    m_Center: {x: 0, y: 0, z: 0}
    m_Extent: {x: 0, y: 0, z: 0}
  m_ClipBindingConstant:
    genericBindings:
    - serializedVersion: 2
      path: 0
      attribute: 0
      script: {fileID: 0}
      typeID: 212
      customType: 23
      isPPtrCurve: 1
    pptrCurveMapping:
    - {fileID: 21300000, guid: e57566ade57bf5340a8dd1a0a732f15c, type: 3}
    - {fileID: 21300000, guid: 2f7ea9dc033cc8c42b9546f0dd0d2ec4, type: 3}
    - {fileID: 21300000, guid: 77f37fcc13a0a84408b38493fa0d0ce0, type: 3}
    - {fileID: 21300000, guid: 1460564890fed2d44918bb1d749b292f, type: 3}
    - {fileID: 21300000, guid: ac10cb7631f54f9499b8b88065cf49be, type: 3}
    - {fileID: 21300000, guid: 7076a4799c4474c49817e4c1c48647ab, type: 3}
    - {fileID: 21300000, guid: ab88242c9e4e4164597d6dea3562a0f2, type: 3}
    - {fileID: 21300000, guid: b2b17e3d39e507b4cb9c6dd63dce4d3c, type: 3}
    - {fileID: 21300000, guid: 62bc8840a6c6e0a48be2e1861fce0186, type: 3}
    - {fileID: 21300000, guid: 9e2fbf83c520d2a41874219caf294fbb, type: 3}
    - {fileID: 21300000, guid: 291911f85689db34481eca36b0a54a83, type: 3}
    - {fileID: 21300000, guid: 9aeb12ba21d920f4596ca4cca0593754, type: 3}
    - {fileID: 21300000, guid: 252c9a69b37504c49b8f766c39e319f0, type: 3}
    - {fileID: 21300000, guid: c68b37866ef71bf43bd64c65f3806488, type: 3}
    - {fileID: 21300000, guid: 2680a2853a009e94b9b3f50b961076eb, type: 3}
  m_AnimationClipSettings:
    serializedVersion: 2
    m_AdditiveReferencePoseClip: {fileID: 0}
    m_AdditiveReferencePoseTime: 0
    m_StartTime: 0
    m_StopTime: 0.8333334
    m_OrientationOffsetY: 0
    m_Level: 0
    m_CycleOffset: 0
    m_HasAdditiveReferencePose: 0
    m_LoopTime: 1
    m_LoopBlend: 0
    m_LoopBlendOrientation: 0
    m_LoopBlendPositionY: 0
    m_LoopBlendPositionXZ: 0
    m_KeepOriginalOrientation: 0
    m_KeepOriginalPositionY: 1
    m_KeepOriginalPositionXZ: 0
    m_HeightFromFeet: 0
    m_Mirror: 0
  m_EditorCurves: []
  m_EulerEditorCurves: []
  m_HasGenericRootTransform: 0
  m_HasMotionFloatCurves: 0
  m_Events: []
