%YAML 1.1
%TAG !u! tag:unity3d.com,2011:
--- !u!74 &7400000
AnimationClip:
  m_ObjectHideFlags: 0
  m_CorrespondingSourceObject: {fileID: 0}
  m_PrefabInstance: {fileID: 0}
  m_PrefabAsset: {fileID: 0}
  m_Name: rifleman-walk
  serializedVersion: 6
  m_Legacy: 0
  m_Compressed: 0
  m_UseHighQualityCurve: 1
  m_RotationCurves: []
  m_CompressedRotationCurves: []
  m_EulerCurves: []
  m_PositionCurves: []
  m_ScaleCurves: []
  m_FloatCurves: []
  m_PPtrCurves:
  - curve:
    - time: 0
      value: {fileID: 21300000, guid: dab21a23d87ad6c4d8faaa3386b2776d, type: 3}
    - time: 0.055555556
      value: {fileID: 21300000, guid: 5fccfb4c60df31945b779cc5ae7061b3, type: 3}
    - time: 0.11111111
      value: {fileID: 21300000, guid: 3ad053e8ee25a6c40b157bd985e19fe2, type: 3}
    - time: 0.16666667
      value: {fileID: 21300000, guid: 67bf20a4077d5b84b808ec2ab7ac2ad2, type: 3}
    - time: 0.22222222
      value: {fileID: 21300000, guid: 11c32602e8735ed40a68210ba426ec96, type: 3}
    - time: 0.2777778
      value: {fileID: 21300000, guid: 5f29c9d483dce274b8b5b4ecc3c980dd, type: 3}
    - time: 0.33333334
      value: {fileID: 21300000, guid: 06d92d238212f664b982f6f21c859fd1, type: 3}
    - time: 0.3888889
      value: {fileID: 21300000, guid: 91e5f42c2dcee2741b009ac8ea78fdf7, type: 3}
    - time: 0.44444445
      value: {fileID: 21300000, guid: e91744fb12d8dbb45ae505414d576cbd, type: 3}
    - time: 0.5
      value: {fileID: 21300000, guid: edf911d7619bd084bb9080a6818d8bb9, type: 3}
    - time: 0.5555556
      value: {fileID: 21300000, guid: 1d7af7b69d306034f9bf505e6a250f2d, type: 3}
    - time: 0.6111111
      value: {fileID: 21300000, guid: 736598bf1850626489c42811a72cc121, type: 3}
    - time: 0.6666667
      value: {fileID: 21300000, guid: 6ad6cbd7a6fbd1a4e9496821c9a2eb05, type: 3}
    - time: 0.7222222
      value: {fileID: 21300000, guid: ce10afc355f775446be648f5366a3e5e, type: 3}
    - time: 0.7777778
      value: {fileID: 21300000, guid: db0bef8ec3da33146ad0d92ca70f2ef8, type: 3}
    - time: 0.8333333
      value: {fileID: 21300000, guid: f0c4a4014267f85408c50c6ee00388b5, type: 3}
    attribute: m_Sprite
    path: 
    classID: 212
    script: {fileID: 0}
  m_SampleRate: 18
  m_WrapMode: 0
  m_Bounds:
    m_Center: {x: 0, y: 0, z: 0}
    m_Extent: {x: 0, y: 0, z: 0}
  m_ClipBindingConstant:
    genericBindings:
    - serializedVersion: 2
      path: 0
      attribute: 0
      script: {fileID: 0}
      typeID: 212
      customType: 23
      isPPtrCurve: 1
    pptrCurveMapping:
    - {fileID: 21300000, guid: dab21a23d87ad6c4d8faaa3386b2776d, type: 3}
    - {fileID: 21300000, guid: 5fccfb4c60df31945b779cc5ae7061b3, type: 3}
    - {fileID: 21300000, guid: 3ad053e8ee25a6c40b157bd985e19fe2, type: 3}
    - {fileID: 21300000, guid: 67bf20a4077d5b84b808ec2ab7ac2ad2, type: 3}
    - {fileID: 21300000, guid: 11c32602e8735ed40a68210ba426ec96, type: 3}
    - {fileID: 21300000, guid: 5f29c9d483dce274b8b5b4ecc3c980dd, type: 3}
    - {fileID: 21300000, guid: 06d92d238212f664b982f6f21c859fd1, type: 3}
    - {fileID: 21300000, guid: 91e5f42c2dcee2741b009ac8ea78fdf7, type: 3}
    - {fileID: 21300000, guid: e91744fb12d8dbb45ae505414d576cbd, type: 3}
    - {fileID: 21300000, guid: edf911d7619bd084bb9080a6818d8bb9, type: 3}
    - {fileID: 21300000, guid: 1d7af7b69d306034f9bf505e6a250f2d, type: 3}
    - {fileID: 21300000, guid: 736598bf1850626489c42811a72cc121, type: 3}
    - {fileID: 21300000, guid: 6ad6cbd7a6fbd1a4e9496821c9a2eb05, type: 3}
    - {fileID: 21300000, guid: ce10afc355f775446be648f5366a3e5e, type: 3}
    - {fileID: 21300000, guid: db0bef8ec3da33146ad0d92ca70f2ef8, type: 3}
    - {fileID: 21300000, guid: f0c4a4014267f85408c50c6ee00388b5, type: 3}
  m_AnimationClipSettings:
    serializedVersion: 2
    m_AdditiveReferencePoseClip: {fileID: 0}
    m_AdditiveReferencePoseTime: 0
    m_StartTime: 0
    m_StopTime: 0.8888889
    m_OrientationOffsetY: 0
    m_Level: 0
    m_CycleOffset: 0
    m_HasAdditiveReferencePose: 0
    m_LoopTime: 1
    m_LoopBlend: 0
    m_LoopBlendOrientation: 0
    m_LoopBlendPositionY: 0
    m_LoopBlendPositionXZ: 0
    m_KeepOriginalOrientation: 0
    m_KeepOriginalPositionY: 1
    m_KeepOriginalPositionXZ: 0
    m_HeightFromFeet: 0
    m_Mirror: 0
  m_EditorCurves: []
  m_EulerEditorCurves: []
  m_HasGenericRootTransform: 0
  m_HasMotionFloatCurves: 0
  m_Events: []
