%YAML 1.1
%TAG !u! tag:unity3d.com,2011:
--- !u!74 &7400000
AnimationClip:
  m_ObjectHideFlags: 0
  m_CorrespondingSourceObject: {fileID: 0}
  m_PrefabInstance: {fileID: 0}
  m_PrefabAsset: {fileID: 0}
  m_Name: hero-jetpack fly backward
  serializedVersion: 6
  m_Legacy: 0
  m_Compressed: 0
  m_UseHighQualityCurve: 1
  m_RotationCurves: []
  m_CompressedRotationCurves: []
  m_EulerCurves: []
  m_PositionCurves: []
  m_ScaleCurves: []
  m_FloatCurves: []
  m_PPtrCurves:
  - curve:
    - time: 0
      value: {fileID: 21300000, guid: 6ec585050b053db4cb25e96cadd2c2ec, type: 3}
    - time: 0.055555556
      value: {fileID: 21300000, guid: 6a11c25dbd5bc7e45a936732ace45070, type: 3}
    - time: 0.11111111
      value: {fileID: 21300000, guid: 59f61a2ac88dd804caf01d742c043644, type: 3}
    - time: 0.16666667
      value: {fileID: 21300000, guid: 894879498a5b0144085965ce07b5378a, type: 3}
    - time: 0.22222222
      value: {fileID: 21300000, guid: 94b2060f34ea4fc4e837e9626b333f50, type: 3}
    - time: 0.2777778
      value: {fileID: 21300000, guid: ed633eaddb8381445a7ae6f64f6dbacc, type: 3}
    - time: 0.33333334
      value: {fileID: 21300000, guid: 6cfcc40600490b34180f7c7894fda9ea, type: 3}
    - time: 0.3888889
      value: {fileID: 21300000, guid: d0727c0c593f5424bba647e05add50d3, type: 3}
    - time: 0.44444445
      value: {fileID: 21300000, guid: d05d7e704d72cc043bffc38a9c7d8f29, type: 3}
    - time: 0.5
      value: {fileID: 21300000, guid: 96f0db87ed432154f8e435b5df887544, type: 3}
    - time: 0.5555556
      value: {fileID: 21300000, guid: 187cadd8c4168ca48902925ba459957c, type: 3}
    - time: 0.6111111
      value: {fileID: 21300000, guid: ec243b9298ef97046a5a13a1e9b4f057, type: 3}
    attribute: m_Sprite
    path: 
    classID: 212
    script: {fileID: 0}
  m_SampleRate: 18
  m_WrapMode: 0
  m_Bounds:
    m_Center: {x: 0, y: 0, z: 0}
    m_Extent: {x: 0, y: 0, z: 0}
  m_ClipBindingConstant:
    genericBindings:
    - serializedVersion: 2
      path: 0
      attribute: 0
      script: {fileID: 0}
      typeID: 212
      customType: 23
      isPPtrCurve: 1
    pptrCurveMapping:
    - {fileID: 21300000, guid: 6ec585050b053db4cb25e96cadd2c2ec, type: 3}
    - {fileID: 21300000, guid: 6a11c25dbd5bc7e45a936732ace45070, type: 3}
    - {fileID: 21300000, guid: 59f61a2ac88dd804caf01d742c043644, type: 3}
    - {fileID: 21300000, guid: 894879498a5b0144085965ce07b5378a, type: 3}
    - {fileID: 21300000, guid: 94b2060f34ea4fc4e837e9626b333f50, type: 3}
    - {fileID: 21300000, guid: ed633eaddb8381445a7ae6f64f6dbacc, type: 3}
    - {fileID: 21300000, guid: 6cfcc40600490b34180f7c7894fda9ea, type: 3}
    - {fileID: 21300000, guid: d0727c0c593f5424bba647e05add50d3, type: 3}
    - {fileID: 21300000, guid: d05d7e704d72cc043bffc38a9c7d8f29, type: 3}
    - {fileID: 21300000, guid: 96f0db87ed432154f8e435b5df887544, type: 3}
    - {fileID: 21300000, guid: 187cadd8c4168ca48902925ba459957c, type: 3}
    - {fileID: 21300000, guid: ec243b9298ef97046a5a13a1e9b4f057, type: 3}
  m_AnimationClipSettings:
    serializedVersion: 2
    m_AdditiveReferencePoseClip: {fileID: 0}
    m_AdditiveReferencePoseTime: 0
    m_StartTime: 0
    m_StopTime: 0.6666667
    m_OrientationOffsetY: 0
    m_Level: 0
    m_CycleOffset: 0
    m_HasAdditiveReferencePose: 0
    m_LoopTime: 1
    m_LoopBlend: 0
    m_LoopBlendOrientation: 0
    m_LoopBlendPositionY: 0
    m_LoopBlendPositionXZ: 0
    m_KeepOriginalOrientation: 0
    m_KeepOriginalPositionY: 1
    m_KeepOriginalPositionXZ: 0
    m_HeightFromFeet: 0
    m_Mirror: 0
  m_EditorCurves: []
  m_EulerEditorCurves: []
  m_HasGenericRootTransform: 0
  m_HasMotionFloatCurves: 0
  m_Events: []
