%YAML 1.1
%TAG !u! tag:unity3d.com,2011:
--- !u!74 &7400000
AnimationClip:
  m_ObjectHideFlags: 0
  m_CorrespondingSourceObject: {fileID: 0}
  m_PrefabInstance: {fileID: 0}
  m_PrefabAsset: {fileID: 0}
  m_Name: hero-run
  serializedVersion: 6
  m_Legacy: 0
  m_Compressed: 0
  m_UseHighQualityCurve: 1
  m_RotationCurves: []
  m_CompressedRotationCurves: []
  m_EulerCurves: []
  m_PositionCurves: []
  m_ScaleCurves: []
  m_FloatCurves: []
  m_PPtrCurves:
  - curve:
    - time: 0
      value: {fileID: 21300000, guid: 5d31e8375304215458cdba76122d66f1, type: 3}
    - time: 0.055555556
      value: {fileID: 21300000, guid: 9310976a1a300844eb75b09456e46df0, type: 3}
    - time: 0.11111111
      value: {fileID: 21300000, guid: 4c8f28d1c75780d4b958d9d800d6c64b, type: 3}
    - time: 0.16666667
      value: {fileID: 21300000, guid: 288b3284acd87864aa49d044b19eabd4, type: 3}
    - time: 0.22222222
      value: {fileID: 21300000, guid: ee7be91ccc73cb34da5da2f705029ad9, type: 3}
    - time: 0.2777778
      value: {fileID: 21300000, guid: 1cbbb84909487d740bf10a87de26fe55, type: 3}
    - time: 0.33333334
      value: {fileID: 21300000, guid: fb3616cc3edc8bc4a96b74b3552dc42d, type: 3}
    - time: 0.3888889
      value: {fileID: 21300000, guid: adc033c0d86e60e4fbcea64fcdc4e5df, type: 3}
    - time: 0.44444445
      value: {fileID: 21300000, guid: 248601a741137414989e2bf21dc1d3ff, type: 3}
    - time: 0.5
      value: {fileID: 21300000, guid: 0e29e66d2c7f3a6499fac6ac8370ca1d, type: 3}
    - time: 0.5555556
      value: {fileID: 21300000, guid: 247f21ddf4e475b4eb61b42d8a8f2942, type: 3}
    - time: 0.6111111
      value: {fileID: 21300000, guid: 97074d1554c1c2e428a2195535f88c16, type: 3}
    - time: 0.6666667
      value: {fileID: 21300000, guid: 6f2256c46836a7f448477631649a1de4, type: 3}
    - time: 0.7222222
      value: {fileID: 21300000, guid: 4592739a89967584495666393ccd1099, type: 3}
    attribute: m_Sprite
    path: 
    classID: 212
    script: {fileID: 0}
  m_SampleRate: 18
  m_WrapMode: 0
  m_Bounds:
    m_Center: {x: 0, y: 0, z: 0}
    m_Extent: {x: 0, y: 0, z: 0}
  m_ClipBindingConstant:
    genericBindings:
    - serializedVersion: 2
      path: 0
      attribute: 0
      script: {fileID: 0}
      typeID: 212
      customType: 23
      isPPtrCurve: 1
    pptrCurveMapping:
    - {fileID: 21300000, guid: 5d31e8375304215458cdba76122d66f1, type: 3}
    - {fileID: 21300000, guid: 9310976a1a300844eb75b09456e46df0, type: 3}
    - {fileID: 21300000, guid: 4c8f28d1c75780d4b958d9d800d6c64b, type: 3}
    - {fileID: 21300000, guid: 288b3284acd87864aa49d044b19eabd4, type: 3}
    - {fileID: 21300000, guid: ee7be91ccc73cb34da5da2f705029ad9, type: 3}
    - {fileID: 21300000, guid: 1cbbb84909487d740bf10a87de26fe55, type: 3}
    - {fileID: 21300000, guid: fb3616cc3edc8bc4a96b74b3552dc42d, type: 3}
    - {fileID: 21300000, guid: adc033c0d86e60e4fbcea64fcdc4e5df, type: 3}
    - {fileID: 21300000, guid: 248601a741137414989e2bf21dc1d3ff, type: 3}
    - {fileID: 21300000, guid: 0e29e66d2c7f3a6499fac6ac8370ca1d, type: 3}
    - {fileID: 21300000, guid: 247f21ddf4e475b4eb61b42d8a8f2942, type: 3}
    - {fileID: 21300000, guid: 97074d1554c1c2e428a2195535f88c16, type: 3}
    - {fileID: 21300000, guid: 6f2256c46836a7f448477631649a1de4, type: 3}
    - {fileID: 21300000, guid: 4592739a89967584495666393ccd1099, type: 3}
  m_AnimationClipSettings:
    serializedVersion: 2
    m_AdditiveReferencePoseClip: {fileID: 0}
    m_AdditiveReferencePoseTime: 0
    m_StartTime: 0
    m_StopTime: 0.7777778
    m_OrientationOffsetY: 0
    m_Level: 0
    m_CycleOffset: 0
    m_HasAdditiveReferencePose: 0
    m_LoopTime: 1
    m_LoopBlend: 0
    m_LoopBlendOrientation: 0
    m_LoopBlendPositionY: 0
    m_LoopBlendPositionXZ: 0
    m_KeepOriginalOrientation: 0
    m_KeepOriginalPositionY: 1
    m_KeepOriginalPositionXZ: 0
    m_HeightFromFeet: 0
    m_Mirror: 0
  m_EditorCurves: []
  m_EulerEditorCurves: []
  m_HasGenericRootTransform: 0
  m_HasMotionFloatCurves: 0
  m_Events: []
