%YAML 1.1
%TAG !u! tag:unity3d.com,2011:
--- !u!74 &7400000
AnimationClip:
  m_ObjectHideFlags: 0
  m_CorrespondingSourceObject: {fileID: 0}
  m_PrefabInstance: {fileID: 0}
  m_PrefabAsset: {fileID: 0}
  m_Name: hero-death
  serializedVersion: 6
  m_Legacy: 0
  m_Compressed: 0
  m_UseHighQualityCurve: 1
  m_RotationCurves: []
  m_CompressedRotationCurves: []
  m_EulerCurves: []
  m_PositionCurves: []
  m_ScaleCurves: []
  m_FloatCurves: []
  m_PPtrCurves:
  - curve:
    - time: 0
      value: {fileID: 21300000, guid: 89af1cb5222c3ce418bb65948319f0cf, type: 3}
    - time: 0.055555556
      value: {fileID: 21300000, guid: 3c1db9f7f03cba340a49016b3a553fdd, type: 3}
    - time: 0.11111111
      value: {fileID: 21300000, guid: c65afa262624b5f4eb02b512526c91b5, type: 3}
    - time: 0.16666667
      value: {fileID: 21300000, guid: 65690f3a2ffa0334581aa3e96f50c9e9, type: 3}
    - time: 0.22222222
      value: {fileID: 21300000, guid: 2a9556229ff9409498679a541809652f, type: 3}
    - time: 0.2777778
      value: {fileID: 21300000, guid: 2ac8180392e7b824fb94e05142cea490, type: 3}
    - time: 0.33333334
      value: {fileID: 21300000, guid: fccad556cae11a04eb2c3b795032eecf, type: 3}
    - time: 0.3888889
      value: {fileID: 21300000, guid: 31dff5159a998fd4092fdfa96cc1c22b, type: 3}
    - time: 0.44444445
      value: {fileID: 21300000, guid: 7d4ad027407383b428269768dbcf89cd, type: 3}
    - time: 0.5
      value: {fileID: 21300000, guid: b4c1ca757a12b3c42a43b718459dd23b, type: 3}
    - time: 0.5555556
      value: {fileID: 21300000, guid: 53ceaff1858961f42b6327d1ffb594a2, type: 3}
    - time: 0.6111111
      value: {fileID: 21300000, guid: d82a57df04974ee448e2109eea255698, type: 3}
    - time: 0.6666667
      value: {fileID: 21300000, guid: feb40f8ab5780454283ef85f5c432a44, type: 3}
    - time: 0.7222222
      value: {fileID: 21300000, guid: ce0163093004b3d47b5251bfd38b7c78, type: 3}
    - time: 0.7777778
      value: {fileID: 21300000, guid: f58a4b5dd8232c24897af5554ba6df16, type: 3}
    attribute: m_Sprite
    path: 
    classID: 212
    script: {fileID: 0}
  m_SampleRate: 18
  m_WrapMode: 0
  m_Bounds:
    m_Center: {x: 0, y: 0, z: 0}
    m_Extent: {x: 0, y: 0, z: 0}
  m_ClipBindingConstant:
    genericBindings:
    - serializedVersion: 2
      path: 0
      attribute: 0
      script: {fileID: 0}
      typeID: 212
      customType: 23
      isPPtrCurve: 1
    pptrCurveMapping:
    - {fileID: 21300000, guid: 89af1cb5222c3ce418bb65948319f0cf, type: 3}
    - {fileID: 21300000, guid: 3c1db9f7f03cba340a49016b3a553fdd, type: 3}
    - {fileID: 21300000, guid: c65afa262624b5f4eb02b512526c91b5, type: 3}
    - {fileID: 21300000, guid: 65690f3a2ffa0334581aa3e96f50c9e9, type: 3}
    - {fileID: 21300000, guid: 2a9556229ff9409498679a541809652f, type: 3}
    - {fileID: 21300000, guid: 2ac8180392e7b824fb94e05142cea490, type: 3}
    - {fileID: 21300000, guid: fccad556cae11a04eb2c3b795032eecf, type: 3}
    - {fileID: 21300000, guid: 31dff5159a998fd4092fdfa96cc1c22b, type: 3}
    - {fileID: 21300000, guid: 7d4ad027407383b428269768dbcf89cd, type: 3}
    - {fileID: 21300000, guid: b4c1ca757a12b3c42a43b718459dd23b, type: 3}
    - {fileID: 21300000, guid: 53ceaff1858961f42b6327d1ffb594a2, type: 3}
    - {fileID: 21300000, guid: d82a57df04974ee448e2109eea255698, type: 3}
    - {fileID: 21300000, guid: feb40f8ab5780454283ef85f5c432a44, type: 3}
    - {fileID: 21300000, guid: ce0163093004b3d47b5251bfd38b7c78, type: 3}
    - {fileID: 21300000, guid: f58a4b5dd8232c24897af5554ba6df16, type: 3}
  m_AnimationClipSettings:
    serializedVersion: 2
    m_AdditiveReferencePoseClip: {fileID: 0}
    m_AdditiveReferencePoseTime: 0
    m_StartTime: 0
    m_StopTime: 0.8333334
    m_OrientationOffsetY: 0
    m_Level: 0
    m_CycleOffset: 0
    m_HasAdditiveReferencePose: 0
    m_LoopTime: 1
    m_LoopBlend: 0
    m_LoopBlendOrientation: 0
    m_LoopBlendPositionY: 0
    m_LoopBlendPositionXZ: 0
    m_KeepOriginalOrientation: 0
    m_KeepOriginalPositionY: 1
    m_KeepOriginalPositionXZ: 0
    m_HeightFromFeet: 0
    m_Mirror: 0
  m_EditorCurves: []
  m_EulerEditorCurves: []
  m_HasGenericRootTransform: 0
  m_HasMotionFloatCurves: 0
  m_Events: []
