%YAML 1.1
%TAG !u! tag:unity3d.com,2011:
--- !u!74 &7400000
AnimationClip:
  m_ObjectHideFlags: 0
  m_CorrespondingSourceObject: {fileID: 0}
  m_PrefabInstance: {fileID: 0}
  m_PrefabAsset: {fileID: 0}
  m_Name: swordsman-run
  serializedVersion: 6
  m_Legacy: 0
  m_Compressed: 0
  m_UseHighQualityCurve: 1
  m_RotationCurves: []
  m_CompressedRotationCurves: []
  m_EulerCurves: []
  m_PositionCurves: []
  m_ScaleCurves: []
  m_FloatCurves: []
  m_PPtrCurves:
  - curve:
    - time: 0
      value: {fileID: 21300000, guid: b26fc8e9a020cdc4fa41fffdb6121087, type: 3}
    - time: 0.055555556
      value: {fileID: 21300000, guid: 0659cf01b324fcc469abdada4f543ac9, type: 3}
    - time: 0.11111111
      value: {fileID: 21300000, guid: 304f06397fd80044f91a4469331a8cba, type: 3}
    - time: 0.16666667
      value: {fileID: 21300000, guid: 540bee2c2296f52429008631eee1a970, type: 3}
    - time: 0.22222222
      value: {fileID: 21300000, guid: 5abc6bbc3fbe3784e80847592e890310, type: 3}
    - time: 0.2777778
      value: {fileID: 21300000, guid: a6bd466f5e3e1a44aadfecd6eb324f99, type: 3}
    - time: 0.33333334
      value: {fileID: 21300000, guid: 553e93854f38bda44b4d72d49cf66fbd, type: 3}
    - time: 0.3888889
      value: {fileID: 21300000, guid: 97b4faec45394554dbaaca4ea1f777c2, type: 3}
    - time: 0.44444445
      value: {fileID: 21300000, guid: 561c4e915f582074d9860aa0f7a41411, type: 3}
    - time: 0.5
      value: {fileID: 21300000, guid: d01e4be59cc0239419bb163d4f9f6c9e, type: 3}
    - time: 0.5555556
      value: {fileID: 21300000, guid: 34ccc8df15d40be499e1190187773eec, type: 3}
    - time: 0.6111111
      value: {fileID: 21300000, guid: e6831718f054cba45be3057e53512960, type: 3}
    - time: 0.6666667
      value: {fileID: 21300000, guid: 78379217a27c54146a8f35c57647fe28, type: 3}
    attribute: m_Sprite
    path: 
    classID: 212
    script: {fileID: 0}
  m_SampleRate: 18
  m_WrapMode: 0
  m_Bounds:
    m_Center: {x: 0, y: 0, z: 0}
    m_Extent: {x: 0, y: 0, z: 0}
  m_ClipBindingConstant:
    genericBindings:
    - serializedVersion: 2
      path: 0
      attribute: 0
      script: {fileID: 0}
      typeID: 212
      customType: 23
      isPPtrCurve: 1
    pptrCurveMapping:
    - {fileID: 21300000, guid: b26fc8e9a020cdc4fa41fffdb6121087, type: 3}
    - {fileID: 21300000, guid: 0659cf01b324fcc469abdada4f543ac9, type: 3}
    - {fileID: 21300000, guid: 304f06397fd80044f91a4469331a8cba, type: 3}
    - {fileID: 21300000, guid: 540bee2c2296f52429008631eee1a970, type: 3}
    - {fileID: 21300000, guid: 5abc6bbc3fbe3784e80847592e890310, type: 3}
    - {fileID: 21300000, guid: a6bd466f5e3e1a44aadfecd6eb324f99, type: 3}
    - {fileID: 21300000, guid: 553e93854f38bda44b4d72d49cf66fbd, type: 3}
    - {fileID: 21300000, guid: 97b4faec45394554dbaaca4ea1f777c2, type: 3}
    - {fileID: 21300000, guid: 561c4e915f582074d9860aa0f7a41411, type: 3}
    - {fileID: 21300000, guid: d01e4be59cc0239419bb163d4f9f6c9e, type: 3}
    - {fileID: 21300000, guid: 34ccc8df15d40be499e1190187773eec, type: 3}
    - {fileID: 21300000, guid: e6831718f054cba45be3057e53512960, type: 3}
    - {fileID: 21300000, guid: 78379217a27c54146a8f35c57647fe28, type: 3}
  m_AnimationClipSettings:
    serializedVersion: 2
    m_AdditiveReferencePoseClip: {fileID: 0}
    m_AdditiveReferencePoseTime: 0
    m_StartTime: 0
    m_StopTime: 0.72222227
    m_OrientationOffsetY: 0
    m_Level: 0
    m_CycleOffset: 0
    m_HasAdditiveReferencePose: 0
    m_LoopTime: 1
    m_LoopBlend: 0
    m_LoopBlendOrientation: 0
    m_LoopBlendPositionY: 0
    m_LoopBlendPositionXZ: 0
    m_KeepOriginalOrientation: 0
    m_KeepOriginalPositionY: 1
    m_KeepOriginalPositionXZ: 0
    m_HeightFromFeet: 0
    m_Mirror: 0
  m_EditorCurves: []
  m_EulerEditorCurves: []
  m_HasGenericRootTransform: 0
  m_HasMotionFloatCurves: 0
  m_Events: []
