%YAML 1.1
%TAG !u! tag:unity3d.com,2011:
--- !u!74 &7400000
AnimationClip:
  m_ObjectHideFlags: 0
  m_CorrespondingSourceObject: {fileID: 0}
  m_PrefabInstance: {fileID: 0}
  m_PrefabAsset: {fileID: 0}
  m_Name: police officer-death
  serializedVersion: 6
  m_Legacy: 0
  m_Compressed: 0
  m_UseHighQualityCurve: 1
  m_RotationCurves: []
  m_CompressedRotationCurves: []
  m_EulerCurves: []
  m_PositionCurves: []
  m_ScaleCurves: []
  m_FloatCurves: []
  m_PPtrCurves:
  - curve:
    - time: 0
      value: {fileID: 21300000, guid: 89c7fbb99a86a214782a4f4bd6981b97, type: 3}
    - time: 0.055555556
      value: {fileID: 21300000, guid: 5c046f576faa90e478a61d86f298aa94, type: 3}
    - time: 0.11111111
      value: {fileID: 21300000, guid: 7ed646b739051cf48b7a59ce3886b787, type: 3}
    - time: 0.16666667
      value: {fileID: 21300000, guid: c14bd59eb8db69f48bb54d224df1a558, type: 3}
    - time: 0.22222222
      value: {fileID: 21300000, guid: 7cd024a970a4e364cbbfaf21a3c31686, type: 3}
    - time: 0.2777778
      value: {fileID: 21300000, guid: 89680869bd5c85845bc84fd7cc0760ea, type: 3}
    - time: 0.33333334
      value: {fileID: 21300000, guid: 6b19bb0d7683ce54b8ea87167d3adfdb, type: 3}
    - time: 0.3888889
      value: {fileID: 21300000, guid: e819884ea9eddbb439923bff90ad9740, type: 3}
    - time: 0.44444445
      value: {fileID: 21300000, guid: daf3bcbbb38bf9f4bb50d817ed11341a, type: 3}
    - time: 0.5
      value: {fileID: 21300000, guid: 90f97319a76519b4f90058edbd63715d, type: 3}
    attribute: m_Sprite
    path: 
    classID: 212
    script: {fileID: 0}
  m_SampleRate: 18
  m_WrapMode: 0
  m_Bounds:
    m_Center: {x: 0, y: 0, z: 0}
    m_Extent: {x: 0, y: 0, z: 0}
  m_ClipBindingConstant:
    genericBindings:
    - serializedVersion: 2
      path: 0
      attribute: 0
      script: {fileID: 0}
      typeID: 212
      customType: 23
      isPPtrCurve: 1
    pptrCurveMapping:
    - {fileID: 21300000, guid: 89c7fbb99a86a214782a4f4bd6981b97, type: 3}
    - {fileID: 21300000, guid: 5c046f576faa90e478a61d86f298aa94, type: 3}
    - {fileID: 21300000, guid: 7ed646b739051cf48b7a59ce3886b787, type: 3}
    - {fileID: 21300000, guid: c14bd59eb8db69f48bb54d224df1a558, type: 3}
    - {fileID: 21300000, guid: 7cd024a970a4e364cbbfaf21a3c31686, type: 3}
    - {fileID: 21300000, guid: 89680869bd5c85845bc84fd7cc0760ea, type: 3}
    - {fileID: 21300000, guid: 6b19bb0d7683ce54b8ea87167d3adfdb, type: 3}
    - {fileID: 21300000, guid: e819884ea9eddbb439923bff90ad9740, type: 3}
    - {fileID: 21300000, guid: daf3bcbbb38bf9f4bb50d817ed11341a, type: 3}
    - {fileID: 21300000, guid: 90f97319a76519b4f90058edbd63715d, type: 3}
  m_AnimationClipSettings:
    serializedVersion: 2
    m_AdditiveReferencePoseClip: {fileID: 0}
    m_AdditiveReferencePoseTime: 0
    m_StartTime: 0
    m_StopTime: 0.5555556
    m_OrientationOffsetY: 0
    m_Level: 0
    m_CycleOffset: 0
    m_HasAdditiveReferencePose: 0
    m_LoopTime: 1
    m_LoopBlend: 0
    m_LoopBlendOrientation: 0
    m_LoopBlendPositionY: 0
    m_LoopBlendPositionXZ: 0
    m_KeepOriginalOrientation: 0
    m_KeepOriginalPositionY: 1
    m_KeepOriginalPositionXZ: 0
    m_HeightFromFeet: 0
    m_Mirror: 0
  m_EditorCurves: []
  m_EulerEditorCurves: []
  m_HasGenericRootTransform: 0
  m_HasMotionFloatCurves: 0
  m_Events: []
