%YAML 1.1
%TAG !u! tag:unity3d.com,2011:
--- !u!74 &7400000
AnimationClip:
  m_ObjectHideFlags: 0
  m_CorrespondingSourceObject: {fileID: 0}
  m_PrefabInstance: {fileID: 0}
  m_PrefabAsset: {fileID: 0}
  m_Name: sniper-lay hurt
  serializedVersion: 6
  m_Legacy: 0
  m_Compressed: 0
  m_UseHighQualityCurve: 1
  m_RotationCurves: []
  m_CompressedRotationCurves: []
  m_EulerCurves: []
  m_PositionCurves: []
  m_ScaleCurves: []
  m_FloatCurves: []
  m_PPtrCurves:
  - curve:
    - time: 0
      value: {fileID: 21300000, guid: 988a05d6115d4284581638a6525de13b, type: 3}
    - time: 0.055555556
      value: {fileID: 21300000, guid: 357d6cd6180103b4c94e51172cd34ec6, type: 3}
    - time: 0.11111111
      value: {fileID: 21300000, guid: 999183c7744022247a042895275d448a, type: 3}
    - time: 0.16666667
      value: {fileID: 21300000, guid: 161ed8e9789528b449150d03b6f901cf, type: 3}
    - time: 0.22222222
      value: {fileID: 21300000, guid: 266b1d95ded4ff942b9365e45d3dbf51, type: 3}
    - time: 0.2777778
      value: {fileID: 21300000, guid: 186b80fd76dc9dc4cac629ecf4aad540, type: 3}
    - time: 0.33333334
      value: {fileID: 21300000, guid: 83ae3096099d5f6448e2c7eb8aa2a8d6, type: 3}
    - time: 0.3888889
      value: {fileID: 21300000, guid: 6529f05868b086249af1da7fc5b69c83, type: 3}
    - time: 0.44444445
      value: {fileID: 21300000, guid: 17d8b216d89c16349845e6b8a6d18001, type: 3}
    - time: 0.5
      value: {fileID: 21300000, guid: 72f50cd09cb6c0a458d8512bf1311b5a, type: 3}
    - time: 0.5555556
      value: {fileID: 21300000, guid: b0a72ab1ba1b56b4d8bb2b9f9739821e, type: 3}
    - time: 0.6111111
      value: {fileID: 21300000, guid: b987483bc2dbe4941a9edfa5e8876871, type: 3}
    attribute: m_Sprite
    path: 
    classID: 212
    script: {fileID: 0}
  m_SampleRate: 18
  m_WrapMode: 0
  m_Bounds:
    m_Center: {x: 0, y: 0, z: 0}
    m_Extent: {x: 0, y: 0, z: 0}
  m_ClipBindingConstant:
    genericBindings:
    - serializedVersion: 2
      path: 0
      attribute: 0
      script: {fileID: 0}
      typeID: 212
      customType: 23
      isPPtrCurve: 1
    pptrCurveMapping:
    - {fileID: 21300000, guid: 988a05d6115d4284581638a6525de13b, type: 3}
    - {fileID: 21300000, guid: 357d6cd6180103b4c94e51172cd34ec6, type: 3}
    - {fileID: 21300000, guid: 999183c7744022247a042895275d448a, type: 3}
    - {fileID: 21300000, guid: 161ed8e9789528b449150d03b6f901cf, type: 3}
    - {fileID: 21300000, guid: 266b1d95ded4ff942b9365e45d3dbf51, type: 3}
    - {fileID: 21300000, guid: 186b80fd76dc9dc4cac629ecf4aad540, type: 3}
    - {fileID: 21300000, guid: 83ae3096099d5f6448e2c7eb8aa2a8d6, type: 3}
    - {fileID: 21300000, guid: 6529f05868b086249af1da7fc5b69c83, type: 3}
    - {fileID: 21300000, guid: 17d8b216d89c16349845e6b8a6d18001, type: 3}
    - {fileID: 21300000, guid: 72f50cd09cb6c0a458d8512bf1311b5a, type: 3}
    - {fileID: 21300000, guid: b0a72ab1ba1b56b4d8bb2b9f9739821e, type: 3}
    - {fileID: 21300000, guid: b987483bc2dbe4941a9edfa5e8876871, type: 3}
  m_AnimationClipSettings:
    serializedVersion: 2
    m_AdditiveReferencePoseClip: {fileID: 0}
    m_AdditiveReferencePoseTime: 0
    m_StartTime: 0
    m_StopTime: 0.6666667
    m_OrientationOffsetY: 0
    m_Level: 0
    m_CycleOffset: 0
    m_HasAdditiveReferencePose: 0
    m_LoopTime: 1
    m_LoopBlend: 0
    m_LoopBlendOrientation: 0
    m_LoopBlendPositionY: 0
    m_LoopBlendPositionXZ: 0
    m_KeepOriginalOrientation: 0
    m_KeepOriginalPositionY: 1
    m_KeepOriginalPositionXZ: 0
    m_HeightFromFeet: 0
    m_Mirror: 0
  m_EditorCurves: []
  m_EulerEditorCurves: []
  m_HasGenericRootTransform: 0
  m_HasMotionFloatCurves: 0
  m_Events: []
