%YAML 1.1
%TAG !u! tag:unity3d.com,2011:
--- !u!74 &7400000
AnimationClip:
  m_ObjectHideFlags: 0
  m_CorrespondingSourceObject: {fileID: 0}
  m_PrefabInstance: {fileID: 0}
  m_PrefabAsset: {fileID: 0}
  m_Name: sniper(variation)-lay aim
  serializedVersion: 6
  m_Legacy: 0
  m_Compressed: 0
  m_UseHighQualityCurve: 1
  m_RotationCurves: []
  m_CompressedRotationCurves: []
  m_EulerCurves: []
  m_PositionCurves: []
  m_ScaleCurves: []
  m_FloatCurves: []
  m_PPtrCurves:
  - curve:
    - time: 0
      value: {fileID: 21300000, guid: 7480edaee4eec8e49be58a9e3e0959ae, type: 3}
    - time: 0.055555556
      value: {fileID: 21300000, guid: be4f4475a56ea8b4f8d42a4de194f24d, type: 3}
    - time: 0.11111111
      value: {fileID: 21300000, guid: af64d4562fc154d4a8bf2528fde4cc9d, type: 3}
    - time: 0.16666667
      value: {fileID: 21300000, guid: a84324c997f0a7a48bcf9511fb2dfe10, type: 3}
    - time: 0.22222222
      value: {fileID: 21300000, guid: c927388edaf2c084483cbfed285f7516, type: 3}
    - time: 0.2777778
      value: {fileID: 21300000, guid: 999473d1bc3767f44995f25e22d9db64, type: 3}
    - time: 0.33333334
      value: {fileID: 21300000, guid: 79483756570d69a4d8dad6cd497e38b7, type: 3}
    - time: 0.3888889
      value: {fileID: 21300000, guid: 2dbd12b0e7956084eaadfedeb8495148, type: 3}
    - time: 0.44444445
      value: {fileID: 21300000, guid: eb09b176be5cc1f4eb5d2462972499ae, type: 3}
    - time: 0.5
      value: {fileID: 21300000, guid: e94e839bcb8cc14418358456a2804e8c, type: 3}
    - time: 0.5555556
      value: {fileID: 21300000, guid: 0120275f2ab6e9d4fa458f4a6cd97426, type: 3}
    - time: 0.6111111
      value: {fileID: 21300000, guid: 051376eed2a7edc44be4db184b190133, type: 3}
    attribute: m_Sprite
    path: 
    classID: 212
    script: {fileID: 0}
  m_SampleRate: 18
  m_WrapMode: 0
  m_Bounds:
    m_Center: {x: 0, y: 0, z: 0}
    m_Extent: {x: 0, y: 0, z: 0}
  m_ClipBindingConstant:
    genericBindings:
    - serializedVersion: 2
      path: 0
      attribute: 0
      script: {fileID: 0}
      typeID: 212
      customType: 23
      isPPtrCurve: 1
    pptrCurveMapping:
    - {fileID: 21300000, guid: 7480edaee4eec8e49be58a9e3e0959ae, type: 3}
    - {fileID: 21300000, guid: be4f4475a56ea8b4f8d42a4de194f24d, type: 3}
    - {fileID: 21300000, guid: af64d4562fc154d4a8bf2528fde4cc9d, type: 3}
    - {fileID: 21300000, guid: a84324c997f0a7a48bcf9511fb2dfe10, type: 3}
    - {fileID: 21300000, guid: c927388edaf2c084483cbfed285f7516, type: 3}
    - {fileID: 21300000, guid: 999473d1bc3767f44995f25e22d9db64, type: 3}
    - {fileID: 21300000, guid: 79483756570d69a4d8dad6cd497e38b7, type: 3}
    - {fileID: 21300000, guid: 2dbd12b0e7956084eaadfedeb8495148, type: 3}
    - {fileID: 21300000, guid: eb09b176be5cc1f4eb5d2462972499ae, type: 3}
    - {fileID: 21300000, guid: e94e839bcb8cc14418358456a2804e8c, type: 3}
    - {fileID: 21300000, guid: 0120275f2ab6e9d4fa458f4a6cd97426, type: 3}
    - {fileID: 21300000, guid: 051376eed2a7edc44be4db184b190133, type: 3}
  m_AnimationClipSettings:
    serializedVersion: 2
    m_AdditiveReferencePoseClip: {fileID: 0}
    m_AdditiveReferencePoseTime: 0
    m_StartTime: 0
    m_StopTime: 0.6666667
    m_OrientationOffsetY: 0
    m_Level: 0
    m_CycleOffset: 0
    m_HasAdditiveReferencePose: 0
    m_LoopTime: 1
    m_LoopBlend: 0
    m_LoopBlendOrientation: 0
    m_LoopBlendPositionY: 0
    m_LoopBlendPositionXZ: 0
    m_KeepOriginalOrientation: 0
    m_KeepOriginalPositionY: 1
    m_KeepOriginalPositionXZ: 0
    m_HeightFromFeet: 0
    m_Mirror: 0
  m_EditorCurves: []
  m_EulerEditorCurves: []
  m_HasGenericRootTransform: 0
  m_HasMotionFloatCurves: 0
  m_Events: []
