%YAML 1.1
%TAG !u! tag:unity3d.com,2011:
--- !u!74 &7400000
AnimationClip:
  m_ObjectHideFlags: 0
  m_CorrespondingSourceObject: {fileID: 0}
  m_PrefabInstance: {fileID: 0}
  m_PrefabAsset: {fileID: 0}
  m_Name: sniper(variation)-shoot
  serializedVersion: 6
  m_Legacy: 0
  m_Compressed: 0
  m_UseHighQualityCurve: 1
  m_RotationCurves: []
  m_CompressedRotationCurves: []
  m_EulerCurves: []
  m_PositionCurves: []
  m_ScaleCurves: []
  m_FloatCurves: []
  m_PPtrCurves:
  - curve:
    - time: 0
      value: {fileID: 21300000, guid: 3c832516a2cd94c4b84cd3da07006a3c, type: 3}
    - time: 0.055555556
      value: {fileID: 21300000, guid: f13bdf1d6e00e3e49b3b6d7c9e78193b, type: 3}
    - time: 0.11111111
      value: {fileID: 21300000, guid: 9d2381ee10b43134a861951057f216ec, type: 3}
    - time: 0.16666667
      value: {fileID: 21300000, guid: b9f469f08c0eed1449c6a8399f2fb976, type: 3}
    - time: 0.22222222
      value: {fileID: 21300000, guid: 026160303ed487c468cd76ecfeb9ea73, type: 3}
    - time: 0.2777778
      value: {fileID: 21300000, guid: fa78ef7d391e49540b83854ade33e71a, type: 3}
    - time: 0.33333334
      value: {fileID: 21300000, guid: cd97287ae2c5f2c4fbcbf75277790b4a, type: 3}
    - time: 0.3888889
      value: {fileID: 21300000, guid: 853ad69f718e0bc4991ff5a7761123a9, type: 3}
    - time: 0.44444445
      value: {fileID: 21300000, guid: beda80da7d2072748b02387fbddd6e9d, type: 3}
    - time: 0.5
      value: {fileID: 21300000, guid: eb8b88caebf3f274c9155d3cbe86025b, type: 3}
    - time: 0.5555556
      value: {fileID: 21300000, guid: 0460149c84aaf744caec735a308d6b56, type: 3}
    - time: 0.6111111
      value: {fileID: 21300000, guid: 6009a660caa55ef4799da67ce15ca8d1, type: 3}
    - time: 0.6666667
      value: {fileID: 21300000, guid: 56040f49a4443da4a80749fb6b7a5c30, type: 3}
    - time: 0.7222222
      value: {fileID: 21300000, guid: 1108688671851d0428da532ae308e979, type: 3}
    - time: 0.7777778
      value: {fileID: 21300000, guid: 70d91fbee3be2fa49b54389a9973b60a, type: 3}
    attribute: m_Sprite
    path: 
    classID: 212
    script: {fileID: 0}
  m_SampleRate: 18
  m_WrapMode: 0
  m_Bounds:
    m_Center: {x: 0, y: 0, z: 0}
    m_Extent: {x: 0, y: 0, z: 0}
  m_ClipBindingConstant:
    genericBindings:
    - serializedVersion: 2
      path: 0
      attribute: 0
      script: {fileID: 0}
      typeID: 212
      customType: 23
      isPPtrCurve: 1
    pptrCurveMapping:
    - {fileID: 21300000, guid: 3c832516a2cd94c4b84cd3da07006a3c, type: 3}
    - {fileID: 21300000, guid: f13bdf1d6e00e3e49b3b6d7c9e78193b, type: 3}
    - {fileID: 21300000, guid: 9d2381ee10b43134a861951057f216ec, type: 3}
    - {fileID: 21300000, guid: b9f469f08c0eed1449c6a8399f2fb976, type: 3}
    - {fileID: 21300000, guid: 026160303ed487c468cd76ecfeb9ea73, type: 3}
    - {fileID: 21300000, guid: fa78ef7d391e49540b83854ade33e71a, type: 3}
    - {fileID: 21300000, guid: cd97287ae2c5f2c4fbcbf75277790b4a, type: 3}
    - {fileID: 21300000, guid: 853ad69f718e0bc4991ff5a7761123a9, type: 3}
    - {fileID: 21300000, guid: beda80da7d2072748b02387fbddd6e9d, type: 3}
    - {fileID: 21300000, guid: eb8b88caebf3f274c9155d3cbe86025b, type: 3}
    - {fileID: 21300000, guid: 0460149c84aaf744caec735a308d6b56, type: 3}
    - {fileID: 21300000, guid: 6009a660caa55ef4799da67ce15ca8d1, type: 3}
    - {fileID: 21300000, guid: 56040f49a4443da4a80749fb6b7a5c30, type: 3}
    - {fileID: 21300000, guid: 1108688671851d0428da532ae308e979, type: 3}
    - {fileID: 21300000, guid: 70d91fbee3be2fa49b54389a9973b60a, type: 3}
  m_AnimationClipSettings:
    serializedVersion: 2
    m_AdditiveReferencePoseClip: {fileID: 0}
    m_AdditiveReferencePoseTime: 0
    m_StartTime: 0
    m_StopTime: 0.8333334
    m_OrientationOffsetY: 0
    m_Level: 0
    m_CycleOffset: 0
    m_HasAdditiveReferencePose: 0
    m_LoopTime: 1
    m_LoopBlend: 0
    m_LoopBlendOrientation: 0
    m_LoopBlendPositionY: 0
    m_LoopBlendPositionXZ: 0
    m_KeepOriginalOrientation: 0
    m_KeepOriginalPositionY: 1
    m_KeepOriginalPositionXZ: 0
    m_HeightFromFeet: 0
    m_Mirror: 0
  m_EditorCurves: []
  m_EulerEditorCurves: []
  m_HasGenericRootTransform: 0
  m_HasMotionFloatCurves: 0
  m_Events: []
