%YAML 1.1
%TAG !u! tag:unity3d.com,2011:
--- !u!74 &7400000
AnimationClip:
  m_ObjectHideFlags: 0
  m_CorrespondingSourceObject: {fileID: 0}
  m_PrefabInstance: {fileID: 0}
  m_PrefabAsset: {fileID: 0}
  m_Name: daggermaster-walk
  serializedVersion: 6
  m_Legacy: 0
  m_Compressed: 0
  m_UseHighQualityCurve: 1
  m_RotationCurves: []
  m_CompressedRotationCurves: []
  m_EulerCurves: []
  m_PositionCurves: []
  m_ScaleCurves: []
  m_FloatCurves: []
  m_PPtrCurves:
  - curve:
    - time: 0
      value: {fileID: 21300000, guid: d7b606cd3ec4f784db8ac8e2f96d73c1, type: 3}
    - time: 0.055555556
      value: {fileID: 21300000, guid: cce2cb01d4f25fb40bd46c343c8616a3, type: 3}
    - time: 0.11111111
      value: {fileID: 21300000, guid: 582ff1ef6bc48ce4cb9880b9814f907c, type: 3}
    - time: 0.16666667
      value: {fileID: 21300000, guid: 0ad735b248236dd478436ddafedc5dd9, type: 3}
    - time: 0.22222222
      value: {fileID: 21300000, guid: d90fd30a294cf6a4c9b01766fc4e88f7, type: 3}
    - time: 0.2777778
      value: {fileID: 21300000, guid: 150aad48b5ee8ea48a36fdaac88eac70, type: 3}
    - time: 0.33333334
      value: {fileID: 21300000, guid: 18b8c61dd451555448499de9128a5750, type: 3}
    - time: 0.3888889
      value: {fileID: 21300000, guid: 712b8486050337045a583eaca3b535e6, type: 3}
    - time: 0.44444445
      value: {fileID: 21300000, guid: f35cd2c38bbc9904ca8ea0fd9edb11b7, type: 3}
    - time: 0.5
      value: {fileID: 21300000, guid: bd7ed60416cd65c45a21251b6b989cfe, type: 3}
    - time: 0.5555556
      value: {fileID: 21300000, guid: f383582f9b9036e40a5872f31f96e8e7, type: 3}
    - time: 0.6111111
      value: {fileID: 21300000, guid: ad0e9a942daa0ac44b31e72d39536c83, type: 3}
    - time: 0.6666667
      value: {fileID: 21300000, guid: b16b7af6edf502b4fb477a7eb79e3854, type: 3}
    - time: 0.7222222
      value: {fileID: 21300000, guid: a91d1fdc3d1fc814e8e4cb856f555c23, type: 3}
    - time: 0.7777778
      value: {fileID: 21300000, guid: 7051aeab058620d4b8a74caff1c78775, type: 3}
    - time: 0.8333333
      value: {fileID: 21300000, guid: ad3a259610bbb6b429f10b46c0d3c244, type: 3}
    attribute: m_Sprite
    path: 
    classID: 212
    script: {fileID: 0}
  m_SampleRate: 18
  m_WrapMode: 0
  m_Bounds:
    m_Center: {x: 0, y: 0, z: 0}
    m_Extent: {x: 0, y: 0, z: 0}
  m_ClipBindingConstant:
    genericBindings:
    - serializedVersion: 2
      path: 0
      attribute: 0
      script: {fileID: 0}
      typeID: 212
      customType: 23
      isPPtrCurve: 1
    pptrCurveMapping:
    - {fileID: 21300000, guid: d7b606cd3ec4f784db8ac8e2f96d73c1, type: 3}
    - {fileID: 21300000, guid: cce2cb01d4f25fb40bd46c343c8616a3, type: 3}
    - {fileID: 21300000, guid: 582ff1ef6bc48ce4cb9880b9814f907c, type: 3}
    - {fileID: 21300000, guid: 0ad735b248236dd478436ddafedc5dd9, type: 3}
    - {fileID: 21300000, guid: d90fd30a294cf6a4c9b01766fc4e88f7, type: 3}
    - {fileID: 21300000, guid: 150aad48b5ee8ea48a36fdaac88eac70, type: 3}
    - {fileID: 21300000, guid: 18b8c61dd451555448499de9128a5750, type: 3}
    - {fileID: 21300000, guid: 712b8486050337045a583eaca3b535e6, type: 3}
    - {fileID: 21300000, guid: f35cd2c38bbc9904ca8ea0fd9edb11b7, type: 3}
    - {fileID: 21300000, guid: bd7ed60416cd65c45a21251b6b989cfe, type: 3}
    - {fileID: 21300000, guid: f383582f9b9036e40a5872f31f96e8e7, type: 3}
    - {fileID: 21300000, guid: ad0e9a942daa0ac44b31e72d39536c83, type: 3}
    - {fileID: 21300000, guid: b16b7af6edf502b4fb477a7eb79e3854, type: 3}
    - {fileID: 21300000, guid: a91d1fdc3d1fc814e8e4cb856f555c23, type: 3}
    - {fileID: 21300000, guid: 7051aeab058620d4b8a74caff1c78775, type: 3}
    - {fileID: 21300000, guid: ad3a259610bbb6b429f10b46c0d3c244, type: 3}
  m_AnimationClipSettings:
    serializedVersion: 2
    m_AdditiveReferencePoseClip: {fileID: 0}
    m_AdditiveReferencePoseTime: 0
    m_StartTime: 0
    m_StopTime: 0.8888889
    m_OrientationOffsetY: 0
    m_Level: 0
    m_CycleOffset: 0
    m_HasAdditiveReferencePose: 0
    m_LoopTime: 1
    m_LoopBlend: 0
    m_LoopBlendOrientation: 0
    m_LoopBlendPositionY: 0
    m_LoopBlendPositionXZ: 0
    m_KeepOriginalOrientation: 0
    m_KeepOriginalPositionY: 1
    m_KeepOriginalPositionXZ: 0
    m_HeightFromFeet: 0
    m_Mirror: 0
  m_EditorCurves: []
  m_EulerEditorCurves: []
  m_HasGenericRootTransform: 0
  m_HasMotionFloatCurves: 0
  m_Events: []
